<?xml version="1.0" encoding="utf-8"?>
<!-- Generator: Adobe Illustrator 18.0.0, SVG Export Plug-In . SVG Version: 6.00 Build 0)  -->
<!DOCTYPE svg PUBLIC "-//W3C//DTD SVG 1.1//EN" "http://www.w3.org/Graphics/SVG/1.1/DTD/svg11.dtd">
<svg version="1.1" id="Layer_1" xmlns="http://www.w3.org/2000/svg" xmlns:xlink="http://www.w3.org/1999/xlink" x="0px" y="0px"
	 viewBox="0 0 100 100" enable-background="new 0 0 100 100" xml:space="preserve">
<g>
	<g>
		<g>
			<circle fill="#333333" cx="28.8" cy="52.8" r="0.8"/>
		</g>
		<g>
			<circle fill="#333333" cx="30.5" cy="51.1" r="0.8"/>
		</g>
		<g>
			<circle fill="#333333" cx="32.3" cy="49.4" r="0.8"/>
		</g>
		<g>
			<circle fill="#333333" cx="34" cy="47.7" r="0.8"/>
		</g>
		<g>
			<circle fill="#333333" cx="35.7" cy="46" r="0.8"/>
		</g>
		<g>
			<circle fill="#333333" cx="37.4" cy="44.3" r="0.8"/>
		</g>
		<g>
			<circle fill="#333333" cx="39.1" cy="42.5" r="0.8"/>
		</g>
		<g>
			<circle fill="#333333" cx="40.8" cy="40.8" r="0.8"/>
		</g>
		<g>
			<circle fill="#333333" cx="42.5" cy="39.1" r="0.8"/>
		</g>
		<g>
			<circle fill="#333333" cx="44.3" cy="37.4" r="0.8"/>
		</g>
		<g>
			<circle fill="#333333" cx="46" cy="35.7" r="0.8"/>
		</g>
		<g>
			<circle fill="#333333" cx="47.7" cy="34" r="0.8"/>
		</g>
		<g>
			<circle fill="#333333" cx="49.4" cy="32.3" r="0.8"/>
		</g>
		<g>
			<circle fill="#333333" cx="51.1" cy="30.5" r="0.8"/>
		</g>
		<g>
			<circle fill="#333333" cx="52.8" cy="28.8" r="0.8"/>
		</g>
	</g>
	<g>
		<path fill="#333333" d="M54.2,80.7c-1.7,0-3.4-0.7-4.6-1.9L21.2,50.4c-2.5-2.5-2.5-6.7,0-9.2l19.9-19.9c1.2-1.2,2.9-1.9,4.6-1.9
			c1.7,0,3.4,0.7,4.6,1.9l28.4,28.4c2.5,2.5,2.5,6.7,0,9.2L58.8,78.8C57.6,80,56,80.7,54.2,80.7z M45.8,21.3c-1.2,0-2.3,0.5-3.2,1.3
			L22.6,42.6c-1.8,1.8-1.8,4.6,0,6.4L51,77.4c0.9,0.9,2,1.3,3.2,1.3s2.3-0.5,3.2-1.3l19.9-19.9c1.8-1.8,1.8-4.6,0-6.4L49,22.6
			C48.1,21.8,47,21.3,45.8,21.3z"/>
	</g>
	<g>
		<g>
			<circle fill="#333333" cx="38" cy="62" r="0.8"/>
		</g>
		<g>
			<circle fill="#333333" cx="39.7" cy="60.3" r="0.8"/>
		</g>
		<g>
			<circle fill="#333333" cx="41.4" cy="58.6" r="0.8"/>
		</g>
		<g>
			<circle fill="#333333" cx="43.1" cy="56.9" r="0.8"/>
		</g>
		<g>
			<circle fill="#333333" cx="44.9" cy="55.1" r="0.8"/>
		</g>
		<g>
			<circle fill="#333333" cx="46.6" cy="53.4" r="0.8"/>
		</g>
		<g>
			<circle fill="#333333" cx="48.3" cy="51.7" r="0.8"/>
		</g>
		<g>
			<circle fill="#333333" cx="50" cy="50" r="0.8"/>
		</g>
		<g>
			<circle fill="#333333" cx="51.7" cy="48.3" r="0.8"/>
		</g>
		<g>
			<circle fill="#333333" cx="53.4" cy="46.6" r="0.8"/>
		</g>
		<g>
			<circle fill="#333333" cx="55.1" cy="44.9" r="0.8"/>
		</g>
		<g>
			<circle fill="#333333" cx="56.9" cy="43.1" r="0.8"/>
		</g>
		<g>
			<circle fill="#333333" cx="58.6" cy="41.4" r="0.8"/>
		</g>
		<g>
			<circle fill="#333333" cx="60.3" cy="39.7" r="0.8"/>
		</g>
		<g>
			<circle fill="#333333" cx="62" cy="38" r="0.8"/>
		</g>
	</g>
	<g>
		<g>
			<circle fill="#333333" cx="47.2" cy="71.2" r="0.8"/>
		</g>
		<g>
			<circle fill="#333333" cx="48.9" cy="69.5" r="0.8"/>
		</g>
		<g>
			<circle fill="#333333" cx="50.6" cy="67.7" r="0.8"/>
		</g>
		<g>
			<circle fill="#333333" cx="52.3" cy="66" r="0.8"/>
		</g>
		<g>
			<circle fill="#333333" cx="54" cy="64.3" r="0.8"/>
		</g>
		<g>
			<circle fill="#333333" cx="55.7" cy="62.6" r="0.8"/>
		</g>
		<g>
			<circle fill="#333333" cx="57.5" cy="60.9" r="0.8"/>
		</g>
		<g>
			<circle fill="#333333" cx="59.2" cy="59.2" r="0.8"/>
		</g>
		<g>
			<circle fill="#333333" cx="60.9" cy="57.5" r="0.8"/>
		</g>
		<g>
			<circle fill="#333333" cx="62.6" cy="55.7" r="0.8"/>
		</g>
		<g>
			<circle fill="#333333" cx="64.3" cy="54" r="0.8"/>
		</g>
		<g>
			<circle fill="#333333" cx="66" cy="52.3" r="0.8"/>
		</g>
		<g>
			<circle fill="#333333" cx="67.7" cy="50.6" r="0.8"/>
		</g>
		<g>
			<circle fill="#333333" cx="69.5" cy="48.9" r="0.8"/>
		</g>
		<g>
			<circle fill="#333333" cx="71.2" cy="47.2" r="0.8"/>
		</g>
	</g>
	<g>
		<g>
			<g>
				<g>
					<path fill="#333333" d="M26.9,49c-0.9,0-1.8-0.4-2.5-1c-1.4-1.4-1.4-3.6,0-4.9l6-6c1.3-1.3,3.6-1.3,4.9,0c0.7,0.7,1,1.5,1,2.5
						s-0.4,1.8-1,2.5l-6,6C28.7,48.7,27.8,49,26.9,49z M32.9,38.1c-0.4,0-0.8,0.2-1.1,0.4l-6,6c-0.6,0.6-0.6,1.5,0,2.1
						c0.6,0.6,1.5,0.6,2.1,0l6-6c0.3-0.3,0.4-0.7,0.4-1.1s-0.2-0.8-0.4-1.1C33.7,38.2,33.3,38.1,32.9,38.1z"/>
				</g>
				<g>
					<path fill="#EF4D5D" d="M31.1,37.8l-3,3l3.5,3.5l3-3c1-1,1-2.5,0-3.5S32.1,36.9,31.1,37.8z"/>
					<path fill="#333333" d="M31.7,45.7l-4.9-4.9l3.7-3.7c1.3-1.3,3.6-1.3,4.9,0c0.7,0.7,1,1.5,1,2.5s-0.4,1.8-1,2.5L31.7,45.7z
						 M29.6,40.8l2.1,2.1l2.3-2.3c0.3-0.3,0.4-0.7,0.4-1.1s-0.2-0.8-0.4-1.1c-0.6-0.6-1.5-0.6-2.1,0L29.6,40.8z"/>
				</g>
			</g>
			<g>
				<g>
					<path fill="#333333" d="M40.1,35.9c-0.9,0-1.8-0.4-2.5-1c-1.4-1.4-1.4-3.6,0-4.9l6-6c1.3-1.3,3.6-1.3,4.9,0
						c0.7,0.7,1,1.5,1,2.5s-0.4,1.8-1,2.5l-6,6C41.9,35.5,41,35.9,40.1,35.9z M46,25c-0.4,0-0.8,0.2-1.1,0.4l-6,6
						c-0.6,0.6-0.6,1.5,0,2.1c0.6,0.6,1.5,0.6,2.1,0l6-6c0.3-0.3,0.4-0.7,0.4-1.1s-0.2-0.8-0.4-1.1C46.8,25.1,46.4,25,46,25z"/>
				</g>
				<g>
					<path fill="#EF4D5D" d="M44.3,24.7l-3,3l3.5,3.5l3-3c1-1,1-2.5,0-3.5S45.2,23.7,44.3,24.7z"/>
					<path fill="#333333" d="M44.8,32.6l-4.9-4.9l3.7-3.7c1.3-1.3,3.6-1.3,4.9,0c0.7,0.7,1,1.5,1,2.5s-0.4,1.8-1,2.5L44.8,32.6z
						 M42.7,27.7l2.1,2.1l2.3-2.3c0.3-0.3,0.4-0.7,0.4-1.1s-0.2-0.8-0.4-1.1c-0.6-0.6-1.5-0.6-2.1,0L42.7,27.7z"/>
				</g>
			</g>
		</g>
		<g>
			<g>
				<g>
					<path fill="#333333" d="M35.8,58.5c-0.9,0-1.8-0.4-2.5-1c-0.7-0.7-1-1.5-1-2.5s0.4-1.8,1-2.5l6-6c1.3-1.3,3.6-1.3,4.9,0
						c0.7,0.7,1,1.5,1,2.5s-0.4,1.8-1,2.5l-6,6C37.6,58.2,36.7,58.5,35.8,58.5z M41.8,47.6c-0.4,0-0.8,0.2-1.1,0.4l-6,6
						c-0.3,0.3-0.4,0.7-0.4,1.1s0.2,0.8,0.4,1.1c0.6,0.6,1.5,0.6,2.1,0l6-6c0.3-0.3,0.4-0.7,0.4-1.1s-0.2-0.8-0.4-1.1
						C42.5,47.7,42.1,47.6,41.8,47.6z"/>
				</g>
				<g>
					<path fill="#EF4D5D" d="M40,47.3l-3,3l3.5,3.5l3-3c1-1,1-2.5,0-3.5S41,46.3,40,47.3z"/>
					<path fill="#333333" d="M40.5,55.2l-4.9-4.9l3.7-3.7c1.3-1.3,3.6-1.3,4.9,0c0.7,0.7,1,1.5,1,2.5s-0.4,1.8-1,2.5L40.5,55.2z
						 M38.4,50.3l2.1,2.1l2.3-2.3c0.3-0.3,0.4-0.7,0.4-1.1s-0.2-0.8-0.4-1.1c-0.6-0.6-1.5-0.6-2.1,0L38.4,50.3z"/>
				</g>
			</g>
			<g>
				<g>
					<path fill="#333333" d="M48.9,45.4c-0.9,0-1.8-0.4-2.5-1c-0.7-0.7-1-1.5-1-2.5s0.4-1.8,1-2.5l6-6c1.3-1.3,3.6-1.3,4.9,0
						c0.7,0.7,1,1.5,1,2.5s-0.4,1.8-1,2.5l-6,6C50.7,45,49.8,45.4,48.9,45.4z M54.9,34.4c-0.4,0-0.8,0.2-1.1,0.4l-6,6
						c-0.3,0.3-0.4,0.7-0.4,1.1s0.2,0.8,0.4,1.1c0.6,0.6,1.5,0.6,2.1,0l6-6c0.3-0.3,0.4-0.7,0.4-1.1s-0.2-0.8-0.4-1.1
						C55.7,34.6,55.3,34.4,54.9,34.4z"/>
				</g>
				<g>
					<path fill="#EF4D5D" d="M53.1,34.2l-3,3l3.5,3.5l3-3c1-1,1-2.5,0-3.5C55.7,33.2,54.1,33.2,53.1,34.2z"/>
					<path fill="#333333" d="M53.7,42.1l-4.9-4.9l3.7-3.7c1.3-1.3,3.6-1.3,4.9,0c0.7,0.7,1,1.5,1,2.5s-0.4,1.8-1,2.5L53.7,42.1z
						 M51.6,37.2l2.1,2.1l2.3-2.3c0.3-0.3,0.4-0.7,0.4-1.1s-0.2-0.8-0.4-1.1c-0.6-0.6-1.5-0.6-2.1,0L51.6,37.2z"/>
				</g>
			</g>
		</g>
		<g>
			<g>
				<path fill="#333333" d="M45.1,67.6c-0.9,0-1.8-0.4-2.5-1c-1.4-1.4-1.4-3.6,0-4.9l6-6c1.3-1.3,3.6-1.3,4.9,0
					c1.4,1.4,1.4,3.6,0,4.9l-6,6C46.9,67.2,46,67.6,45.1,67.6z M51.1,56.6c-0.4,0-0.8,0.2-1.1,0.4l-6,6c-0.6,0.6-0.6,1.5,0,2.1
					c0.6,0.6,1.5,0.6,2.1,0l6-6c0.6-0.6,0.6-1.5,0-2.1C51.9,56.8,51.5,56.6,51.1,56.6z"/>
			</g>
			<g>
				<path fill="#EF4D5D" d="M49.3,56.3l-3,3l3.5,3.5l3-3c1-1,1-2.5,0-3.5S50.3,55.4,49.3,56.3z"/>
				<path fill="#333333" d="M49.9,64.3l-4.9-4.9l3.7-3.7c1.3-1.3,3.6-1.3,4.9,0c1.4,1.4,1.4,3.6,0,4.9L49.9,64.3z M47.8,59.3
					l2.1,2.1l2.3-2.3c0.6-0.6,0.6-1.5,0-2.1c-0.6-0.6-1.5-0.6-2.1,0L47.8,59.3z"/>
			</g>
		</g>
		<g>
			<g>
				<path fill="#333333" d="M58.2,54.4c-0.9,0-1.8-0.4-2.5-1c-1.4-1.4-1.4-3.6,0-4.9l6-6c1.3-1.3,3.6-1.3,4.9,0
					c1.4,1.4,1.4,3.6,0,4.9l-6,6C60.1,54.1,59.2,54.4,58.2,54.4z M64.2,43.5c-0.4,0-0.8,0.2-1.1,0.4l-6,6c-0.6,0.6-0.6,1.5,0,2.1
					c0.6,0.6,1.5,0.6,2.1,0l6-6c0.6-0.6,0.6-1.5,0-2.1C65,43.6,64.6,43.5,64.2,43.5z"/>
			</g>
			<g>
				<path fill="#EF4D5D" d="M62.5,43.2l-3,3l3.5,3.5l3-3c1-1,1-2.5,0-3.5C65,42.2,63.4,42.2,62.5,43.2z"/>
				<path fill="#333333" d="M63,51.1l-4.9-4.9l3.7-3.7c1.3-1.3,3.6-1.3,4.9,0c1.4,1.4,1.4,3.6,0,4.9L63,51.1z M60.9,46.2l2.1,2.1
					l2.3-2.3c0.6-0.6,0.6-1.5,0-2.1c-0.6-0.6-1.5-0.6-2.1,0L60.9,46.2z"/>
			</g>
		</g>
		<g>
			<g>
				<path fill="#333333" d="M54,77c-0.9,0-1.8-0.4-2.5-1c-1.4-1.4-1.4-3.6,0-4.9l6-6c1.3-1.3,3.6-1.3,4.9,0c0.7,0.7,1,1.5,1,2.5
					s-0.4,1.8-1,2.5l-6,6C55.8,76.7,54.9,77,54,77z M60,66.1c-0.4,0-0.8,0.2-1.1,0.4l-6,6c-0.6,0.6-0.6,1.5,0,2.1
					c0.6,0.6,1.5,0.6,2.1,0l6-6c0.3-0.3,0.4-0.7,0.4-1.1s-0.2-0.8-0.4-1.1C60.7,66.2,60.3,66.1,60,66.1z"/>
			</g>
			<g>
				<path fill="#EF4D5D" d="M58.2,65.8l-3,3l3.5,3.5l3-3c1-1,1-2.5,0-3.5C60.7,64.8,59.2,64.8,58.2,65.8z"/>
				<path fill="#333333" d="M58.7,73.7l-4.9-4.9l3.7-3.7c1.3-1.3,3.6-1.3,4.9,0c0.7,0.7,1,1.5,1,2.5s-0.4,1.8-1,2.5L58.7,73.7z
					 M56.6,68.8l2.1,2.1l2.3-2.3c0.3-0.3,0.4-0.7,0.4-1.1s-0.2-0.8-0.4-1.1c-0.6-0.6-1.5-0.6-2.1,0L56.6,68.8z"/>
			</g>
		</g>
		<g>
			<g>
				<path fill="#333333" d="M67.1,63.9c-0.9,0-1.8-0.4-2.5-1c-1.4-1.4-1.4-3.6,0-4.9l6-6c1.3-1.3,3.6-1.3,4.9,0c0.7,0.7,1,1.5,1,2.5
					s-0.4,1.8-1,2.5l-6,6C68.9,63.5,68,63.9,67.1,63.9z M73.1,53c-0.4,0-0.8,0.2-1.1,0.4l-6,6c-0.6,0.6-0.6,1.5,0,2.1
					c0.6,0.6,1.5,0.6,2.1,0l6-6c0.3-0.3,0.4-0.7,0.4-1.1s-0.2-0.8-0.4-1.1C73.9,53.1,73.5,53,73.1,53z"/>
			</g>
			<g>
				<path fill="#EF4D5D" d="M71.3,52.7l-3,3l3.5,3.5l3-3c1-1,1-2.5,0-3.5S72.3,51.7,71.3,52.7z"/>
				<path fill="#333333" d="M71.9,60.6l-4.9-4.9l3.7-3.7c1.3-1.3,3.6-1.3,4.9,0c1.4,1.4,1.4,3.6,0,4.9L71.9,60.6z M69.8,55.7
					l2.1,2.1l2.3-2.3c0.6-0.6,0.6-1.5,0-2.1c-0.6-0.6-1.5-0.6-2.1,0L69.8,55.7z"/>
			</g>
		</g>
	</g>
</g>
</svg>
