<?xml version="1.0" encoding="iso-8859-1"?>
<!-- Generator: Adobe Illustrator 18.1.1, SVG Export Plug-In . SVG Version: 6.00 Build 0)  -->
<!DOCTYPE svg PUBLIC "-//W3C//DTD SVG 1.1//EN" "http://www.w3.org/Graphics/SVG/1.1/DTD/svg11.dtd">
<svg version="1.1" xmlns="http://www.w3.org/2000/svg" xmlns:xlink="http://www.w3.org/1999/xlink" x="0px" y="0px"
	 viewBox="0 0 75 75" style="enable-background:new 0 0 75 75;" xml:space="preserve">
<g id="Ar_PVN_apliekamie_pakalpojumi">
	<g>
		<g>
			<path style="fill:#CF4240;" d="M23.815,31.655c-4.772,0-8.655-3.882-8.655-8.655s3.882-8.655,8.655-8.655S32.47,18.228,32.47,23
				S28.588,31.655,23.815,31.655z M23.815,18.345c-2.567,0-4.655,2.088-4.655,4.655s2.088,4.655,4.655,4.655S28.47,25.567,28.47,23
				S26.382,18.345,23.815,18.345z"/>
		</g>
		<g>
			<path style="fill:#CF4240;" d="M51.815,60.654c-4.772,0-8.654-3.882-8.654-8.654s3.882-8.654,8.654-8.654S60.47,47.228,60.47,52
				S56.588,60.654,51.815,60.654z M51.815,47.346c-2.566,0-4.654,2.088-4.654,4.654s2.088,4.654,4.654,4.654S56.47,54.566,56.47,52
				S54.382,47.346,51.815,47.346z"/>
		</g>
	</g>
	<g>
		<path style="fill:#CF4240;" d="M26.232,61.794c-0.303,0-0.611-0.068-0.9-0.215c-0.986-0.498-1.382-1.7-0.884-2.687L46.96,14.304
			c0.497-0.985,1.699-1.381,2.687-0.884c0.986,0.498,1.382,1.701,0.884,2.687L28.019,60.695
			C27.667,61.393,26.963,61.794,26.232,61.794z"/>
	</g>
</g>
<g id="Layer_1">
</g>
</svg>
