<?xml version="1.0" encoding="utf-8"?>
<!-- Generator: Adobe Illustrator 18.0.0, SVG Export Plug-In . SVG Version: 6.00 Build 0)  -->
<!DOCTYPE svg PUBLIC "-//W3C//DTD SVG 1.1//EN" "http://www.w3.org/Graphics/SVG/1.1/DTD/svg11.dtd">
<svg version="1.1" id="Layer_1" xmlns="http://www.w3.org/2000/svg" xmlns:xlink="http://www.w3.org/1999/xlink" x="0px" y="0px"
	 viewBox="0 0 200 202.7" enable-background="new 0 0 200 202.7" xml:space="preserve">
<g>
	<path fill="#983432" d="M144.5,80.4c-4.5-2.4-9.7-5.1-19.6-5.1s-15,2.7-19.6,5.1c-0.7,0.4-1.3,0.7-2.1,1v-9.6
		c0.7-0.3,1.3-0.7,2.1-1c4.5-2.4,9.7-5.1,19.6-5.1c1,0,1.9,0,2.8,0.1V33.1H71.1v41.2H29.5v56.5h41.5v41.2h56.8v-40.6
		c-0.9,0-1.8-0.1-2.8-0.1c-9.9,0-15,2.7-19.6,5.1c-0.7,0.4-1.3,0.7-2.1,1v-9.6c0.7-0.3,1.3-0.7,2.1-1c4.5-2.4,9.7-5.1,19.6-5.1
		s15,2.7,19.6,5.1c4,2.1,7.6,4,15,4c4.8,0,7.9-0.7,10.8-1.9v-9.1v-0.1v-9c-2.7,1.2-5.8,1.9-10.8,1.9c-7.5,0-10.9-1.8-15-4
		c-4.5-2.4-9.7-5.1-19.6-5.1s-15,2.7-19.6,5.1c-0.7,0.4-1.3,0.7-2.1,1V100c0.7-0.3,1.3-0.7,2.1-1c4.5-2.4,9.7-5.1,19.6-5.1
		s15,2.7,19.6,5.1c4,2.1,7.6,4,15,4c4.8,0,7.9-0.7,10.8-1.9v-9.1v-0.1v-9.1c-2.7,1.2-5.8,1.9-10.8,1.9
		C152.2,84.4,148.7,82.5,144.5,80.4"/>
	<path fill="#010101" d="M15.3,75.1c0.1-0.6,0.3-1,0.3-1.3c0-0.4-0.4-0.9-1-1.2L4.3,68.4c-0.6-0.3-1-0.1-1.5,0.1
		c-0.1,0.1-0.4,0.6-0.7,1.2l-0.6-0.1l3-7.3l0.6,0.1c-0.3,0.9-0.4,1.5-0.3,1.8c0.1,0.3,0.6,0.7,1.3,1l10,4c0.4,0.1,0.9,0.1,1,0
		c0.3-0.1,0.4-0.6,0.7-1.3c0.6-1.2,0.7-2.4,0.4-3.6c-0.1-1-1-2.2-2.4-3.6l0.3-0.6l4.5,2.8l-5.1,12.1L15.3,75.1z"/>
	<path fill="#010101" d="M22.6,50.1l-5.5-1l-0.1,0.1l3.3,4.6L22.6,50.1z M21.9,59.8c0.3-0.4,0.3-1,0.1-1.5c-0.1-0.3-0.4-0.9-1-1.8
		l-7.5-11.1l0.3-0.6l12.7,2.4c1.5,0.3,2.4,0.4,2.8,0.4s0.9-0.3,1.2-0.7l0.4,0.3l-4.2,6.1l-0.4-0.3c0.4-0.6,0.6-1,0.6-1.3
		s-0.1-0.4-0.4-0.7c-0.1-0.1-0.4-0.1-0.7-0.3c-0.1,0-0.4-0.1-0.7-0.1l-1.5-0.3l-2.8,4.2c0.6,0.7,0.9,1.3,1,1.5
		c0.4,0.4,0.7,0.7,0.9,0.9c0.3,0.1,0.6,0.1,0.9-0.1c0.1-0.1,0.4-0.4,0.7-0.9l0.4,0.3L22.2,60L21.9,59.8z"/>
	<path fill="#010101" d="M20.7,35.8l9.6-9.7l3.3,3.1l-0.4,0.4c-1.3-1-2.5-1.3-3.7-1c-0.6,0.1-1.3,0.6-2.1,1.5l8.7,8.4
		c0.6,0.6,1,0.9,1.5,0.9c0.4,0,0.9-0.3,1.6-1l0.4,0.4l-5.7,5.8l-0.4-0.4c0.6-0.6,0.9-1.2,0.9-1.5c0-0.4-0.3-0.9-0.9-1.5l-8.7-8.5
		c-0.7,0.7-1.2,1.5-1.3,2.2c-0.3,1.2,0,2.4,1,3.6L24,39L20.7,35.8z"/>
	<path fill="#010101" d="M40.9,18l0.3,0.4c-0.6,0.4-1,0.9-1.2,1c-0.1,0.1-0.1,0.4,0.1,0.7c0,0.1,0.1,0.1,0.1,0.3
		c0,0,0.1,0.1,0.3,0.1l7.8,4.9l0,0l-1.9-8.1c0-0.1-0.1-0.3-0.1-0.6c-0.1-0.3-0.1-0.4-0.3-0.6c-0.3-0.3-0.4-0.4-0.7-0.4
		c-0.3,0-0.7,0.3-1.5,0.7l-0.3-0.4l4-2.7l0.3,0.4c-0.4,0.3-0.7,0.7-0.7,1s0,0.9,0.1,1.6l3.3,13.9l-0.4,0.3l-12.6-7.9
		c-0.4-0.3-0.9-0.4-1.2-0.6c-0.3,0-0.7,0-1.2,0.3l-0.4-0.4L40.9,18z"/>
	<path fill="#010101" d="M58.2,24.7c0.6-0.3,0.9-0.6,1.2-0.7c0.3-0.4,0.3-0.9,0-1.5l-4.6-10c-0.3-0.6-0.6-0.9-1.2-0.9
		c-0.3,0-0.7,0.1-1.3,0.3l-0.3-0.4l7.2-3.3l0.3,0.4c-0.6,0.3-1,0.6-1.2,0.9c-0.3,0.4-0.3,0.9,0,1.5l4.6,10c0.3,0.6,0.6,0.9,1,0.9
		s0.9-0.1,1.6-0.4l0.3,0.4l-7.3,3.3L58.2,24.7z"/>
	<path fill="#010101" d="M73.6,3.1l0.1,0.6C73,4,72.6,4.3,72.3,4.6c-0.1,0.3-0.1,0.9,0.1,1.6l2.8,9.4c0.4,1.5,0.4,2.8-0.1,4
		c-0.6,1-1.6,1.9-3.1,2.4c-1,0.3-2.1,0.3-2.8-0.1c-0.9-0.4-1.3-0.9-1.5-1.5c-0.1-0.6-0.1-1,0.1-1.3c0.1-0.4,0.6-0.6,1-0.7
		c0.4-0.1,0.9-0.1,1.2,0.1c0.3,0.1,0.6,0.6,0.7,0.9c0.1,0.3,0.1,0.7,0,1c-0.1,0.3-0.1,0.6-0.1,0.6c0,0.1,0.1,0.3,0.4,0.4
		c0.1,0,0.4,0,0.6,0c0.6-0.1,1-0.6,1-1c0-0.3,0-0.7-0.1-1.3L68.8,7c-0.1-0.6-0.6-1-1-1c-0.3,0-0.9,0-1.6,0.3L66,5.7L73.6,3.1z"/>
	<path fill="#010101" d="M88.3,10.8l-2.8-4.9h-0.1l-1.5,5.4L88.3,10.8z M80.4,16.5c0.6-0.1,0.9-0.4,1.2-0.9c0.1-0.3,0.4-1,0.7-1.9
		l3.6-12.9h0.6L93,12c0.7,1.2,1.2,2.1,1.6,2.4c0.3,0.3,0.7,0.4,1.2,0.4v0.6l-7.2,0.7v-0.6c0.7-0.1,1.2-0.3,1.5-0.3
		c0.1-0.1,0.3-0.4,0.3-0.7c0-0.1-0.1-0.4-0.3-0.7c-0.1-0.1-0.3-0.4-0.4-0.7l-0.9-1.3l-5.1,0.6c-0.3,0.9-0.3,1.5-0.4,1.8
		c-0.1,0.6-0.1,1-0.1,1.3s0.3,0.6,0.7,0.6c0.3,0,0.6,0,1.2,0v0.6l-4.6,0.6L80.4,16.5z"/>
	<path fill="#010101" d="M99.1,10.2h0.6c0.3,1.6,0.7,3,1.5,3.7c0.7,0.7,1.6,1.2,2.7,1.3c1,0,1.8-0.1,2.2-0.6c0.4-0.4,0.7-1,0.7-1.6
		c0-0.7-0.1-1.2-0.6-1.6c-0.1-0.3-0.7-0.7-1.6-1.2l-1.3-0.9c-1.3-0.7-2.4-1.6-2.8-2.4c-0.6-0.7-0.7-1.6-0.7-2.7s0.6-2.1,1.3-3
		c0.7-0.9,2.1-1.2,3.6-1.2c0.9,0,1.6,0.3,2.4,0.6c0.7,0.3,1.2,0.4,1.3,0.4c0.3,0,0.4,0,0.6-0.1c0-0.1,0.1-0.3,0.1-0.6h0.7l-0.3,4.9
		H109c-0.1-1.2-0.7-2.2-1.3-3c-0.6-0.7-1.6-1.3-2.7-1.5c-0.7,0-1.3,0.1-1.8,0.4c-0.4,0.4-0.7,0.9-0.7,1.5c0,0.7,0.1,1.2,0.4,1.6
		c0.4,0.4,1.2,1,2.5,1.8l1.6,1c0.7,0.4,1.3,0.9,1.6,1.3c0.7,0.9,1,1.9,1,3.1c-0.1,1.2-0.6,2.2-1.5,3.1c-0.9,0.9-2.4,1.3-4.3,1.2
		c-0.4,0-0.9-0.1-1.3-0.1c-0.4-0.1-0.9-0.3-1.3-0.4l-0.4-0.1c-0.1,0-0.1,0-0.3-0.1c-0.1,0-0.1,0-0.3,0c-0.3,0-0.4,0-0.4,0.1
		c-0.1,0.1-0.1,0.3-0.3,0.6h-0.6L99.1,10.2z"/>
	<path fill="#010101" d="M142.9,10.3l-0.3,0.6c-0.7-0.3-1.3-0.3-1.6-0.3c-0.3,0.1-0.7,0.6-1,1.3l-3.9,9c-0.6,1.5-1.5,2.4-2.7,3
		c-1.2,0.4-2.5,0.4-3.9-0.1c-1-0.4-1.8-1-2.1-1.9c-0.4-0.9-0.4-1.5-0.1-2.2c0.1-0.4,0.6-0.9,1-1c0.4-0.1,0.9-0.1,1.2,0
		c0.4,0.1,0.7,0.4,0.9,0.9c0.1,0.4,0.1,0.7,0,1.2c-0.1,0.3-0.3,0.6-0.6,0.9c-0.3,0.3-0.4,0.4-0.4,0.4c-0.1,0.1,0,0.4,0,0.6
		c0.1,0.1,0.3,0.3,0.4,0.4c0.6,0.3,1.2,0.3,1.5-0.1c0.1-0.1,0.4-0.6,0.7-1.2l4.9-11.7c0.3-0.6,0.3-1.2-0.1-1.5
		c-0.1-0.3-0.6-0.4-1.3-0.9l0.1-0.4L142.9,10.3z"/>
	<path fill="#010101" d="M153.1,12.3l6.3,4l-0.9,1.3l-6.3-4L153.1,12.3z M154,16.6l-0.3,0.4c-0.7-0.4-1.3-0.6-1.6-0.6
		c-0.4,0-0.7,0.4-1.3,1.2l-4.2,6.3c-0.6,0.9-1,1.8-1.2,2.4c-0.3,1.2,0.3,2.2,1.5,3c1.5,0.9,2.8,1,4,0.3c0.7-0.4,1.3-1.2,2.1-2.2
		l3.9-5.8c0.4-0.7,0.6-1.2,0.6-1.6c-0.1-0.4-0.4-0.9-1.2-1.5l0.3-0.4l4.2,2.7l-0.3,0.4c-0.7-0.3-1.2-0.4-1.5-0.3c-0.3,0-0.6,0.3-1,1
		l-4,6.1c-1,1.6-2.2,2.5-3.6,3c-1.3,0.3-2.8,0-4.5-1c-2.2-1.5-3.3-3-3.1-4.9c0-0.9,0.4-1.9,1.2-3.1l4.2-6.3c0.4-0.7,0.6-1.2,0.6-1.5
		c0-0.3-0.4-0.7-1-1.2l0.3-0.4L154,16.6z"/>
	<path fill="#010101" d="M166.3,35.5c0.7,0.1,1.6-0.3,2.7-1.2c0.6-0.6,1-1.2,1.2-1.8c0.3-0.9,0.1-1.8-0.7-2.5
		c-0.4-0.4-0.7-0.6-1-0.7c-0.3,0-0.4,0.1-0.7,0.3l-4,4C164.6,34.8,165.5,35.4,166.3,35.5 M154.3,34.9c0.6,0.4,1,0.7,1.5,0.7
		s0.9-0.3,1.5-0.9l7.2-7c0.6-0.6,0.9-1.2,0.9-1.5s-0.3-0.7-0.7-1.3l0.4-0.4l5.2,5.2c1,1,1.8,2.1,2.2,3c0.9,1.8,0.6,3.1-0.6,4.3
		c-0.9,0.9-1.9,1.2-3.1,1c-0.9-0.1-1.6-0.4-2.4-0.9l-1.2,7.9c0,0.1,0,0.4,0,0.6c0,0.1,0.1,0.3,0.3,0.4l-0.4,0.4l-3.3-3.3l1.3-8.8
		l0,0l-3.1,3.1c-0.6,0.6-0.9,1-0.9,1.3c0,0.4,0.3,0.9,0.7,1.5l-0.4,0.4l-5.4-5.4L154.3,34.9z"/>
	<path fill="#010101" d="M175.6,52.3l3.3-4.6l-0.1-0.1l-5.5,1.2L175.6,52.3z M166.9,47.8c0.3,0.4,0.7,0.6,1.3,0.7c0.3,0,1,0,2.1-0.3
		l13.2-2.5l0.3,0.6l-7.3,10.8c-0.7,1.2-1.3,2.1-1.5,2.5c-0.1,0.4-0.1,0.9,0.1,1.3l-0.4,0.3l-4-6.1l0.4-0.3c0.4,0.6,0.7,1,0.9,1
		c0.1,0.1,0.4,0.1,0.7-0.1c0.1-0.1,0.3-0.3,0.6-0.6c0.1-0.1,0.3-0.4,0.4-0.7l0.9-1.2l-2.8-4.3c-0.9,0.1-1.5,0.3-1.8,0.4
		c-0.6,0.1-1,0.3-1.2,0.4c-0.3,0.1-0.3,0.4-0.3,0.9c0,0.3,0.3,0.6,0.6,1l-0.4,0.3l-2.5-3.9L166.9,47.8z"/>
	<path fill="#010101" d="M181,61.6l0.3,0.6c-1.5,1-2.4,1.9-2.8,3c-0.4,1-0.4,2.1,0,3c0.4,0.9,0.9,1.5,1.5,1.6c0.6,0.1,1.2,0.1,1.8,0
		c0.6-0.3,1-0.7,1.3-1.2c0.1-0.4,0.3-1,0.3-2.1l0.1-1.6c0.1-1.6,0.4-2.8,0.9-3.6c0.4-0.7,1.2-1.5,2.1-1.8c1-0.4,2.1-0.4,3.3-0.1
		c1.2,0.3,2.1,1.3,2.7,2.8c0.3,0.7,0.4,1.5,0.6,2.4c0,0.7,0.1,1.2,0.1,1.3c0.1,0.3,0.3,0.3,0.4,0.4c0.1,0,0.4,0,0.6,0l0.3,0.6
		L190,69l-0.3-0.6c0.9-0.7,1.6-1.5,2.1-2.5s0.4-1.9,0.1-3c-0.3-0.7-0.7-1.2-1.2-1.3c-0.6-0.3-1-0.3-1.6,0s-1,0.6-1.2,1.2
		c-0.1,0.4-0.3,1.5-0.4,3.1l-0.1,1.8c0,0.9-0.1,1.5-0.4,2.1c-0.4,1-1.3,1.9-2.4,2.4c-1,0.4-2.2,0.4-3.6,0c-1.3-0.4-2.2-1.5-3-3.4
		c-0.1-0.4-0.3-0.9-0.4-1.3c-0.1-0.4-0.1-0.9-0.1-1.3v-0.4c0-0.1,0-0.1,0-0.3c0-0.1,0-0.1,0-0.3c-0.1-0.1-0.1-0.3-0.4-0.3
		c-0.1,0-0.3,0-0.6,0l-0.3-0.6L181,61.6z"/>
	<path fill="#010101" d="M185.2,90.9c0,0.9,0.1,1.5,0.4,1.6c0.3,0.3,0.7,0.4,1.3,0.4h10.8c0.6,0,1-0.1,1.2-0.4
		c0.1-0.3,0.3-0.7,0.4-1.6h0.6v5.7l-10.6,4.5v0.1l10.6,4.5v5.7h-0.6c0-0.7-0.1-1.3-0.4-1.6c-0.3-0.3-0.7-0.4-1.6-0.4h-10
		c-0.9,0-1.3,0.1-1.6,0.4c-0.3,0.3-0.4,0.7-0.4,1.6h-0.6v-7.5h0.6c0,0.6,0.1,1.2,0.3,1.5c0.1,0.3,0.6,0.4,1.3,0.4h11.2v-0.1
		l-13.5-5.5v-0.6l13.2-5.5v-0.1h-10.3c-0.7,0-1.3,0.1-1.6,0.4c-0.3,0.3-0.6,0.9-0.6,1.8h-0.6v-5.2L185.2,90.9z"/>
	<path fill="#010101" d="M184,113.6l0.6,0.1c-0.1,0.6-0.1,1,0,1.3c0.1,0.4,0.6,0.7,1.2,0.9l10.8,2.4c0.6,0.1,1.2,0,1.5-0.3
		c0.1-0.1,0.4-0.6,0.6-1.2l0.6,0.1l-3,12.7l-4.5-1l0.1-0.6c1.5,0,2.5-0.1,3.3-0.7c0.7-0.6,1.2-1.6,1.6-3.4c0.1-0.7,0.1-1,0.1-1.3
		c-0.1-0.1-0.3-0.3-0.7-0.4l-5.1-1.2c-0.3,1.2-0.3,2.1,0.1,2.7c0.3,0.6,1.2,1,2.4,1.6l-0.1,0.6l-7.5-1.6l0.1-0.6
		c1.3,0.1,2.2,0,2.8-0.3c0.6-0.3,1-1.2,1.3-2.4l-5.4-1.2c-0.4-0.1-0.7,0-1,0.1c-0.3,0.1-0.4,0.7-0.6,1.5c-0.3,1.3-0.3,2.7,0,3.6
		c0.3,1,1.2,2.1,2.5,3.1l-0.1,0.6l-4.5-1.9L184,113.6z"/>
	<path fill="#010101" d="M178.7,135.4c-0.3,0-0.4,0.3-0.7,0.7c-0.6,1.2-0.6,2.4-0.1,3.6c0.4,1.2,1.9,2.4,4.5,3.4c1.5,0.6,2.8,1,4,1
		c1.9,0.1,3.4-0.7,4.2-2.2c0.3-0.6,0.3-0.9,0.1-1.2c-0.1-0.1-0.3-0.3-0.7-0.6l-10.2-4.6C179.3,135.4,179,135.4,178.7,135.4
		 M180.7,130c-0.1,0.6-0.3,0.9-0.3,1.2c0,0.4,0.3,0.9,0.9,1.2l10.2,4.6c0.6,0.3,1,0.1,1.3,0c0.3-0.1,0.4-0.4,0.7-1l0.6,0.3l-2.8,6.3
		c-1.2,2.5-2.7,4.2-4.8,4.9c-1.8,0.6-3.7,0.4-5.8-0.4c-1.9-0.9-3.1-2.2-3.9-4c-0.9-2.1-0.7-4.2,0.3-6.6l3-6.6L180.7,130z"/>
	<path fill="#010101" d="M172.7,146.2c-0.3,0.6-0.6,0.9-0.6,1.3c0,0.4,0.1,0.9,0.7,1.3l9.1,6.1c0.6,0.3,1,0.4,1.5,0.1
		c0.3-0.1,0.6-0.4,1-1l0.4,0.3l-4.5,6.6l-0.4-0.3c0.3-0.6,0.6-1,0.6-1.3c0-0.4-0.1-0.9-0.7-1.3l-9.1-6.1c-0.6-0.3-1-0.4-1.3-0.3
		c-0.4,0.1-0.7,0.6-1.2,1.2l-0.4-0.3l4.5-6.6L172.7,146.2z"/>
	<path fill="#010101" d="M169.7,173.2c-0.9,0.4-1.5,0.7-1.5,0.7c-0.1,0.1-0.3,0.4-0.3,0.7c0,0.3,0.1,0.4,0.3,0.7l-0.4,0.4l-3.9-3.6
		l0.4-0.4c1.2,0.4,2.2,0.6,3.1,0.6c1.6,0,2.8-0.4,3.9-1.3c1-1,1.3-2.4,0.7-3.7c-0.4-1.3-1.6-2.8-3.1-4.3c-1.2-1-2.2-1.9-3.3-2.4
		c-1.9-0.9-3.6-0.6-4.8,0.7c-0.7,0.9-1.3,1.8-1.5,3c-0.1,0.7-0.1,1.6-0.1,2.7l-0.9,0.1c-0.1-1.3-0.1-2.4,0-3.1
		c0.3-1.3,0.9-2.7,1.9-3.7c1.5-1.6,3.3-2.5,5.4-2.7c2.2-0.1,4.2,0.6,6.1,2.2c1.8,1.6,2.7,3.6,2.7,5.8c0,2.1-0.7,3.9-2.2,5.5
		C171.4,172.1,170.6,172.7,169.7,173.2"/>
	<path fill="#010101" d="M164.8,182l-6,4.5l-1-1.3l6-4.5L164.8,182z M154,167.6c-0.4,0.4-0.9,0.7-0.9,1c-0.1,0.4-0.1,0.9,0.3,1.5
		l6.7,8.8c0.4,0.6,0.9,0.7,1.3,0.7c0.3,0,0.7-0.3,1.3-0.6l0.3,0.4l-6.3,4.8l-0.3-0.4c0.6-0.4,0.9-0.7,1-1c0.1-0.4,0.1-0.9-0.3-1.5
		l-6.7-8.8c-0.4-0.4-0.7-0.7-1.2-0.7c-0.4,0-0.9,0.3-1.5,0.7l-0.3-0.4l6.3-4.8L154,167.6z"/>
	<path fill="#010101" d="M145.7,174.1c-0.7,0.4-1.2,0.7-1.2,1.2c-0.1,0.4,0,0.9,0.3,1.3l5.1,9.6c1,0.3,1.6,0.6,1.8,0.6
		c0.1,0,0.4,0,0.7-0.1l0.3,0.4l-4.3,2.2l-11.4-4.8h-0.1l3.1,5.8c0.3,0.7,0.7,1,1.2,1.2s1,0.1,1.8-0.3l0.3,0.4L139,194l-0.3-0.4
		c0.6-0.4,0.9-0.7,1-1c0.1-0.3,0-0.7-0.3-1.3l-6.3-11.8l0.6-0.3l14.5,6.1h0.1l-4.2-7.9c-0.3-0.6-0.6-1-0.9-1.2
		c-0.4-0.3-1.2-0.1-1.9,0.1l-0.3-0.4l4.6-2.4L145.7,174.1z"/>
	<path fill="#010101" d="M122.6,189.2l3.6,4.5h0.1l0.6-5.7L122.6,189.2z M129.7,182.3c-0.4,0.1-0.9,0.6-1,1c-0.1,0.3-0.3,1-0.3,2.1
		l-1.5,13.3l-0.6,0.1l-8.2-10c-0.9-1.2-1.5-1.8-1.9-2.1s-0.7-0.3-1.3-0.1l-0.1-0.6l7.2-1.9l0.1,0.6c-0.7,0.3-1.2,0.4-1.3,0.6
		c-0.1,0.1-0.3,0.4-0.1,0.7c0,0.1,0.1,0.4,0.4,0.7c0.1,0.1,0.3,0.4,0.4,0.6l0.9,1.2l4.9-1.3c0.1-0.9,0.1-1.6,0.1-1.8
		c0-0.6,0-1,0-1.3c-0.1-0.3-0.3-0.4-0.9-0.4c-0.3,0-0.6,0-1.2,0.1l-0.1-0.6l4.5-1.2L129.7,182.3z"/>
	<path fill="#010101" d="M112.1,191.5h-0.6c-0.4-1.6-1.2-2.8-2.1-3.6c-0.9-0.7-1.8-1-2.8-0.9c-1,0.1-1.6,0.4-2.1,1
		c-0.4,0.6-0.6,1.2-0.4,1.6c0,0.7,0.3,1.2,0.7,1.6c0.3,0.3,0.9,0.6,1.9,0.9l1.5,0.6c1.5,0.6,2.5,1.2,3.3,1.9c0.6,0.6,1,1.5,1.2,2.5
		c0.1,1-0.1,2.1-0.9,3.1c-0.7,1-1.8,1.6-3.4,1.8c-0.7,0-1.6,0-2.4-0.1s-1.2-0.3-1.3-0.3c-0.3,0-0.4,0.1-0.4,0.3
		c-0.1,0.1-0.1,0.3-0.1,0.6h-0.7l-0.4-4.9h0.6c0.4,1,1,2.1,1.8,2.8c0.7,0.7,1.8,1,2.8,1c0.7,0,1.3-0.3,1.8-0.7
		c0.4-0.4,0.6-1,0.4-1.6c0-0.7-0.3-1.2-0.7-1.5c-0.4-0.3-1.3-0.7-2.8-1.3l-1.8-0.7c-0.7-0.3-1.3-0.6-1.9-1c-0.9-0.7-1.3-1.8-1.5-3
		s0.3-2.2,1-3.3s2.2-1.8,4.2-1.9c0.4,0,0.9,0,1.3,0c0.4,0,0.9,0.1,1.3,0.3l0.4,0.1c0.1,0,0.1,0,0.3,0s0.1,0,0.3,0
		c0.3,0,0.4-0.1,0.4-0.3c0.1-0.1,0.1-0.3,0.1-0.6h0.6L112.1,191.5z"/>
	<path fill="#010101" d="M67.9,197.6c-0.9-0.6-1.3-0.9-1.5-0.9c-0.3-0.1-0.6,0-0.7,0.1c-0.3,0.1-0.4,0.3-0.4,0.6l-0.6-0.1l1.5-5.1
		l0.6,0.1c0.1,1.2,0.4,2.2,0.9,3.1c0.7,1.5,1.6,2.4,3,2.7c1.5,0.4,2.7,0,3.6-1s1.8-2.7,2.4-4.8c0.4-1.5,0.6-2.8,0.6-4
		c-0.1-2.1-1.2-3.4-3-3.9c-1.2-0.3-2.2-0.3-3.4,0c-0.6,0.1-1.5,0.6-2.4,1.2l-0.4-0.7c1.2-0.7,2.1-1.2,2.8-1.5
		c1.3-0.4,2.7-0.4,4.2-0.1c2.1,0.6,3.7,1.8,4.9,3.4c1.2,1.8,1.5,4,0.9,6.4c-0.6,2.4-1.9,4-3.9,5.1c-1.8,1-3.9,1.2-6,0.6
		C69.7,198.7,68.8,198.2,67.9,197.6"/>
	<path fill="#010101" d="M65.8,181.1l-0.3,0.4c-0.6-0.3-1-0.4-1.3-0.4c-0.4,0-0.9,0.3-1.2,0.9l-5.1,9.7c-0.3,0.6-0.3,1,0,1.5
		c0.1,0.3,0.6,0.6,1,0.9l-0.3,0.4l-11.7-6l2.1-4l0.4,0.3c-0.4,1.5-0.4,2.5,0,3.3c0.3,0.7,1.3,1.6,3,2.4c0.6,0.3,1,0.4,1.3,0.4
		s0.4-0.3,0.6-0.6l2.4-4.6c-1.2-0.6-2.1-0.7-2.7-0.6c-0.6,0.1-1.3,0.9-2.1,1.9l-0.4-0.3l3.4-6.9l0.4,0.3c-0.4,1.2-0.6,2.2-0.3,2.8
		c0.1,0.7,0.9,1.3,2.1,1.9l2.5-4.9c0.1-0.4,0.3-0.7,0.1-1c-0.1-0.3-0.6-0.6-1.2-0.9c-1.3-0.6-2.5-0.9-3.6-0.9
		c-1,0.1-2.2,0.6-3.6,1.6l-0.6-0.3l3-3.7L65.8,181.1z"/>
	<path fill="#010101" d="M50.7,173.8c-0.7-0.4-1.2-0.7-1.6-0.6c-0.4,0.1-0.7,0.3-1,0.7l-6.7,8.4c0,1,0.1,1.6,0.1,1.8
		s0.1,0.4,0.3,0.6l-0.3,0.4l-3.7-3l-0.1-12.3h-0.1l-4.2,5.2c-0.4,0.6-0.7,1-0.7,1.5c0,0.4,0.3,0.9,0.9,1.5l-0.3,0.4l-3.9-3l0.3-0.4
		c0.6,0.3,1,0.4,1.3,0.4c0.3,0,0.7-0.3,1-0.7l8.4-10.5l0.4,0.4l0.3,15.7l0.1,0.1l5.5-7c0.4-0.6,0.6-1,0.7-1.3c0-0.6-0.3-1.2-1-1.8
		l0.3-0.4l4,3.1V173.8z"/>
	<path fill="#010101" d="M25.2,171.8l-8.8-10.5l3.4-3l0.4,0.4c-1,1.2-1.6,2.4-1.3,3.6c0.1,0.6,0.6,1.3,1.2,2.2l9.1-7.6
		c0.6-0.6,1-1,1-1.3c0-0.4-0.3-0.9-0.9-1.6l0.4-0.3l5.2,6.1l-0.4,0.3c-0.6-0.7-1-1-1.5-1c-0.4,0-0.9,0.1-1.5,0.7l-9.1,7.6
		c0.7,0.9,1.5,1.3,2.1,1.6c1.2,0.4,2.4,0.1,3.7-0.7l0.4,0.4L25.2,171.8z"/>
	<path fill="#010101" d="M14.7,145.6c-0.6-0.3-1.6-0.1-2.8,0.4c-0.7,0.4-1.3,0.9-1.6,1.3c-0.6,0.7-0.6,1.6,0,2.7
		c0.3,0.6,0.6,0.9,0.7,0.9c0.1,0.1,0.4,0,0.7-0.1l5.1-2.8C16,146.8,15.4,145.9,14.7,145.6 M25.9,149.6c-0.4-0.6-0.7-1-1.2-1.2
		c-0.3-0.1-0.9,0-1.6,0.4l-8.8,4.8c-0.7,0.4-1.2,0.9-1.2,1.2c0,0.3,0.1,0.7,0.4,1.5l-0.4,0.3l-3.6-6.4c-0.7-1.3-1.2-2.5-1.3-3.4
		c-0.3-1.9,0.3-3.3,1.8-4c1-0.6,2.2-0.6,3.3-0.1c0.7,0.4,1.5,0.9,1.9,1.5l3.4-7.3c0.1-0.1,0.1-0.3,0.1-0.4c0-0.1,0-0.3-0.1-0.4
		l0.4-0.3l2.2,4.2l-3.7,8.1l0,0l3.9-2.1c0.7-0.4,1-0.7,1.2-1.2c0.1-0.3,0-0.9-0.3-1.6l0.4-0.3l3.7,6.7L25.9,149.6z"/>
	<path fill="#010101" d="M13,134.6l-0.1-0.6c1.5-0.9,2.5-1.8,3-2.8c0.4-1,0.6-1.9,0.3-3c-0.3-0.9-0.7-1.5-1.5-1.8
		c-0.6-0.3-1.2-0.3-1.8-0.1c-0.6,0.1-1,0.6-1.3,1.2c-0.1,0.3-0.3,1-0.4,2.1l-0.3,1.6c-0.3,1.6-0.6,2.8-1,3.6
		c-0.4,0.7-1.2,1.3-2.2,1.6s-2.2,0.3-3.3-0.1c-1.2-0.4-1.9-1.5-2.5-3c-0.4-0.9-0.6-1.6-0.6-2.4c0-0.7,0-1.2,0-1.3
		c-0.1-0.3-0.1-0.4-0.3-0.4s-0.3,0-0.6,0L0,128.5l4.8-1.5l0.1,0.6c-1,0.6-1.8,1.5-2.4,2.4c-0.6,0.9-0.7,1.9-0.3,3
		c0.3,0.7,0.6,1.2,1.2,1.5c0.3,0.1,0.9,0.1,1.5,0c0.7-0.1,1.2-0.6,1.3-1c0.1-0.4,0.4-1.5,0.7-3l0.1-1.9c0.1-0.9,0.3-1.5,0.6-2.1
		c0.6-1,1.5-1.8,2.5-2.1c1-0.3,2.2-0.3,3.4,0.3c1.2,0.6,2.2,1.8,2.8,3.6c0.1,0.4,0.3,0.9,0.3,1.3s0.1,0.9,0,1.5v0.4
		c0,0.1,0,0.1,0,0.3c0,0.1,0,0.1,0,0.3s0.1,0.3,0.3,0.4c0.1,0,0.3,0,0.6,0l0.1,0.6L13,134.6z"/>
	<path fill="#010101" d="M9.1,98.7c0,2.2-1.8,4-4,4s-4-1.8-4-4c0-2.2,1.8-4,4-4S9.1,96.4,9.1,98.7"/>
</g>
</svg>
