<?xml version="1.0" encoding="iso-8859-1"?>
<!-- Generator: Adobe Illustrator 18.1.1, SVG Export Plug-In . SVG Version: 6.00 Build 0)  -->
<!DOCTYPE svg PUBLIC "-//W3C//DTD SVG 1.1//EN" "http://www.w3.org/Graphics/SVG/1.1/DTD/svg11.dtd">
<svg version="1.1" xmlns="http://www.w3.org/2000/svg" xmlns:xlink="http://www.w3.org/1999/xlink" x="0px" y="0px"
	 viewBox="0 0 104 100" style="enable-background:new 0 0 104 100;" xml:space="preserve">
<g id="Medikamenti_endoprotezes_utml">
	<path style="fill:#CC333E;" d="M79.206,48.921c6.871-7.249,6.77-18.686-0.336-25.792c-7.105-7.105-18.543-7.206-25.792-0.336
		l-0.018-0.018L24.776,51.061l0.018,0.018c-6.871,7.249-6.77,18.686,0.336,25.792c7.105,7.105,18.543,7.206,25.792,0.336
		l0.018,0.018l28.284-28.284L79.206,48.921z M25.823,73.076c-4.127-5.49-4.128-13.086-0.001-18.576
		c0.543-0.722,1.613-0.781,2.252-0.142l0.002,0.002c0.53,0.53,0.577,1.362,0.128,1.962c-3.298,4.414-3.298,10.519,0,14.933
		c0.448,0.6,0.401,1.433-0.128,1.962C27.436,73.856,26.366,73.798,25.823,73.076z M62.253,61.667l-21.92-21.92l14.496-14.496
		c6.043-6.043,15.877-6.043,21.92,0c6.043,6.043,6.043,15.877,0,21.92L62.253,61.667z"/>
</g>
<g id="Layer_1">
</g>
</svg>
