<?xml version="1.0" encoding="iso-8859-1"?>
<!-- Generator: Adobe Illustrator 18.1.1, SVG Export Plug-In . SVG Version: 6.00 Build 0)  -->
<!DOCTYPE svg PUBLIC "-//W3C//DTD SVG 1.1//EN" "http://www.w3.org/Graphics/SVG/1.1/DTD/svg11.dtd">
<svg version="1.1" xmlns="http://www.w3.org/2000/svg" xmlns:xlink="http://www.w3.org/1999/xlink" x="0px" y="0px"
	 viewBox="0 0 75 75" style="enable-background:new 0 0 75 75;" xml:space="preserve">
<g id="Vakcinacija">
	<path style="fill:#CF4240;" d="M65.927,64.042l-9.664-9.664l0.996-9.952L27.565,14.732l-3.457,3.457l-2.123-2.123l3.457-3.457
		l-2.828-2.828L9.073,23.322l2.828,2.828l3.457-3.457l2.123,2.123l-3.457,3.457l29.694,29.694l9.929-1.019l8.273,8.273
		L65.927,64.042z M37.618,36.237l-5.726,5.726l-3.354-3.354l5.726-5.726l-2.123-2.123l-5.726,5.726l-3.354-3.354l5.726-5.726
		l-2.123-2.123l-5.726,5.726l-3.354-3.354l1.369-1.369l4.358-4.358l2.269-2.269l1.368-1.368l3.354,3.354l2.123,2.123l3.354,3.354
		l2.123,2.123l3.354,3.354L37.618,36.237z"/>
</g>
<g id="Layer_1">
</g>
</svg>
